{
    "z":
        {
        "ENERGY": 45.6,
        "EMITTANCE_X": 0.71E-9,
        "EMITTANCE_Y": 1.42E-12,
        "EMITTANCE_RATIO": 3.7E-3,
        "OPTICS":{
            "Q1": 0.26,
            "Q2": 0.38,
            "BETASTAR_X": 0.15,
            "BETASTAR_Y": 0.0008
        },
        "APERTURE":{
            "NAME":"BDS",
            "N1":13,
            "PRIMARY_COLLIMATOR_APERTURE_X": 10,
            "PRIMARY_COLLIMATOR_APERTURE_Y": 80,
            "NSIG_FOR_MOMENTUM_ACCEPTANCE":8,
            "MIN_MOMENTUM_ACCEPTANCE":0.013
        },
        "DA_TRANSVERSE":{
            "TURNS":2500,
            "MIN_DA_Y":43,
            "MIN_DA_X":[-40,40],
            "X_RANGE":[-40, 40],
            "Y_RANGE":[0, 60],
            "Z_RANGE":[0, 0]
        },
        "DA_LONGITUDINAL":{
            "TURNS":2500,
            "MIN_DA_X":51,
            "MIN_DA_Z":[-20,20],
            "X_RANGE":[0, 20],
            "Y_RANGE":[0, 20],
            "Z_RANGE":[-20, 20]
        }
    },
    "t":
    {
        "ENERGY": 182.5,
        "EMITTANCE_X": 1.49E-9,
        "EMITTANCE_Y": 2.98E-12,
        "EMITTANCE_RATIO": 2.0E-3,
        "OPTICS":{
            "Q1": 0.224,
            "Q2": 0.36,
            "BETASTAR_X": 1,
            "BETASTAR_Y": 0.0016    
        },
        "APERTURE":{
            "NAME":"BDS",
            "N1":13,
            "PRIMARY_COLLIMATOR_APERTURE_X": 10,
            "PRIMARY_COLLIMATOR_APERTURE_Y": 80,
            "NSIG_FOR_MOMENTUM_ACCEPTANCE":8,
            "MIN_MOMENTUM_ACCEPTANCE":0.028
        },
        "DA_TRANSVERSE":{
            "TURNS":45,
            "MIN_DA_Y":49,
            "MIN_DA_X":[-16,16],
            "X_RANGE":[-40, 40],
            "Y_RANGE":[0, 60],
            "Z_RANGE":[0, 0]          
        },
        "DA_LONGITUDINAL":{
            "TURNS":45,
            "MIN_DA_X":43,
            "MIN_DA_Z":[-16,16],
            "X_RANGE":[0, 20],
            "Y_RANGE":[0, 20],
            "Z_RANGE":[-20, 20]            
        }
        },
    "TUNE_ACCURACY":5E-6,       
    "BETA_ACCURACY":5E-6,
    "EMITTANCE_ACCURACY":0.01 
}